111111111111111111111
1GG0000000W0000000GG1
1GRRRRR000W000RRRRRG1
10RFFFR000W000RFFFR01
10R000R0000000R000R01
1000000000P0000000001
10R000R0000000R000R01
10RFFFR000W000RFFFR01
1GRRRRR000W000RRRRRG1
1GG0000000W0000000GG1
111111111111111111111